{
    "name": "Scripts",
    "rootNamespace": "",
    "references": [
        "GUID:21d1eb854b91ade49bc69a263d12bee2",
        "GUID:6055be8ebefd69e48b49212b09b47b2f",
        "GUID:d8b63aba1907145bea998dd612889d6b",
        "GUID:21b0c8d1703a94250bfac916590cea4f",
        "GUID:315d634a9ac6d460a9515f5a56be6311",
        "GUID:ea715009a4efd4c6cbc85be3ae097dd3"
    ],
    "includePlatforms": [],
    "excludePlatforms": [],
    "allowUnsafeCode": false,
    "overrideReferences": false,
    "precompiledReferences": [],
    "autoReferenced": true,
    "defineConstraints": [],
    "versionDefines": [],
    "noEngineReferences": false
}